{
  "urn" : "local:amarquez:im.fire.sicily:fireignition_100m_2007_2020_sicily_italy",
  "version" : "0.0.1",
  "adapterType" : "wcs",
  "localPath" : "im.fire.sicily/resources/fireignition_100m_2007_2020_sicily_italy.v0.0.1",
  "geometry" : "S2(3700,3308){bbox=[11.928589084377 15.629589084376995 35.497904406477005 38.806904406477],proj=EPSG:4326}",
  "projectName" : "im.fire.sicily",
  "localName" : "fireignition_100m_2007_2020_sicily_italy",
  "type" : "NUMBER",
  "resourceTimestamp" : 1627749214567,
  "metadata" : { },
  "parameters" : {
    "wcsIdentifier" : "fire_sicilia__fireignition_100m_2007_2020_sicily_italy",
    "transform" : "",
    "serviceUrl" : "http://192.168.250.128:8080/geoserver/ows/",
    "band" : "0",
    "nodata" : "-3.402823E38",
    "wcsVersion" : "2.0.1"
  },
  "localPaths" : [ ],
  "history" : [ ],
  "notifications" : [ ],
  "attributes" : [ ],
  "spatialExtent" : {
    "east" : 15.629589084376995,
    "west" : 11.928589084377,
    "north" : 38.806904406477,
    "south" : 35.497904406477005,
    "gridResolution" : null,
    "gridUnit" : null
  },
  "dependencies" : null,
  "outputs" : null,
  "categorizables" : [ ],
  "exportFormats" : { }
}