{
  "urn" : "local:amarquez:im.fire.sicily:qq_Jan",
  "version" : "0.0.1",
  "adapterType" : "raster",
  "localPath" : "im.fire.sicily/resources/qq_Jan.v0.0.1",
  "geometry" : "S2(38,33){bbox=[11.899860343400004 15.699860328200003 35.499860609 38.799860595800006],proj=EPSG:4326}",
  "projectName" : "im.fire.sicily",
  "localName" : "qq_Jan.tif",
  "type" : "NUMBER",
  "resourceTimestamp" : 1646906887869,
  "metadata" : { },
  "parameters" : {
    "transform" : "",
    "nodata" : "-3.4E38"
  },
  "localPaths" : "im.fire.sicily/resources/qq_Jan.v0.0.1/qq_Jan.tif",
  "history" : [ ],
  "notifications" : [ ],
  "attributes" : [ ],
  "spatialExtent" : {
    "east" : 15.699860328200003,
    "west" : 11.899860343400004,
    "north" : 38.799860595800006,
    "south" : 35.499860609,
    "gridResolution" : null,
    "gridUnit" : null
  },
  "dependencies" : null,
  "outputs" : null,
  "categorizables" : [ ],
  "codelists" : [ ],
  "availability" : null,
  "exportFormats" : {
    "zip" : "GeoTiff"
  }
}