{
  "urn" : "local:amarquez:im.fire.sicily:klab742297113643142657",
  "version" : "0.0.1",
  "adapterType" : "raster",
  "localPath" : "im.fire.sicily/resources/klab742297113643142657.v0.0.1",
  "geometry" : "S2(476,451){bbox=[12.425430400979062 15.652830837643322 36.23042422297874 38.70600029548217],proj=EPSG:4326}",
  "projectName" : "im.fire.sicily",
  "localName" : "klab742297113643142657.tiff",
  "type" : "NUMBER",
  "resourceTimestamp" : 1648471531539,
  "metadata" : { },
  "parameters" : {
    "transform" : ""
  },
  "localPaths" : "im.fire.sicily/resources/klab742297113643142657.v0.0.1/klab742297113643142657.tiff",
  "history" : [ ],
  "notifications" : [ ],
  "attributes" : [ ],
  "spatialExtent" : {
    "east" : 15.652830837643322,
    "west" : 12.425430400979062,
    "north" : 38.70600029548217,
    "south" : 36.23042422297874,
    "gridResolution" : null,
    "gridUnit" : null
  },
  "dependencies" : null,
  "outputs" : null,
  "categorizables" : [ ],
  "codelists" : [ ],
  "availability" : null,
  "exportFormats" : {
    "zip" : "GeoTiff"
  }
}