{
  "urn" : "local:amarquez:im.fire.sicily:20190114_tx",
  "version" : "0.0.1",
  "adapterType" : "raster",
  "localPath" : "im.fire.sicily/resources/20190114_tx.v0.0.1",
  "geometry" : "t1{tstart=-61551187200000,ttype=physical}S2(38,33){bbox=[11.899860343381453 15.699860328179502 35.49986057678783 38.79986056633194],proj=EPSG:4326}",
  "projectName" : "im.fire.sicily",
  "localName" : "20190114_tx.tif",
  "type" : "NUMBER",
  "resourceTimestamp" : 1646388983731,
  "metadata" : {
    "im:keywords" : "",
    "dc:comment" : "",
    "im:notes" : "",
    "dc:title" : "",
    "dc:url" : "",
    "dc:creator" : "",
    "im:thematic-area" : "",
    "dc:originator" : "",
    "im:geographic-area" : "",
    "dc:source" : ""
  },
  "parameters" : {
    "transform" : "",
    "nodata" : "-3.4E38"
  },
  "localPaths" : [ "im.fire.sicily/resources/20190114_tx.v0.0.1/20190114_tx.tif.aux.xml", "im.fire.sicily/resources/20190114_tx.v0.0.1/20190114_tx.tif" ],
  "history" : [ ],
  "notifications" : [ ],
  "attributes" : [ ],
  "spatialExtent" : {
    "east" : 15.699860328179502,
    "west" : 11.899860343381453,
    "north" : 38.79986056633194,
    "south" : 35.49986057678783,
    "gridResolution" : null,
    "gridUnit" : null
  },
  "dependencies" : null,
  "outputs" : null,
  "categorizables" : [ ],
  "codelists" : [ ],
  "availability" : null,
  "exportFormats" : {
    "zip" : "GeoTiff"
  }
}